out/R10945018-SystemC-EX2_Waveform.vcd
$date
     Jun 02, 2022       15:58:20
$end

$version
 SystemC 2.3.3-Accellera --- Mar 28 2022 06:09:17
$end

$timescale
     1 ps
$end

$scope module SystemC $end
$var wire    1  aaaaa  8051_clk_(800)       $end
$var wire    1  aaaab  FIR_clk_(100)       $end
$var wire    8  aaaac  8051_value_(port0o) [7:0]  $end
$var wire    8  aaaad  8051_send_ctrl_(port3o) [7:0]  $end
$var wire    8  aaaae  FIR_calculate_ctrl_(port2i) [7:0]  $end
$var wire    8  aaaaf  FIR_value_(port1i) [7:0]  $end
$upscope $end
$enddefinitions  $end

$comment
All initial values are dumped below at time 0 sec = 0 timescale units.
$end

$dumpvars
0aaaaa
0aaaab
b0 aaaac
b0 aaaad
b0 aaaae
b0 aaaaf
$end

#1000
1aaaaa
1aaaab

#1625
0aaaaa

#2250
1aaaaa

#2875
0aaaaa

#3500
1aaaaa

#4125
0aaaaa

#4750
1aaaaa

#5375
0aaaaa

#6000
1aaaaa
0aaaab

#6625
0aaaaa

#7250
1aaaaa

#7875
0aaaaa

#8500
1aaaaa

#9125
0aaaaa

#9750
1aaaaa

#10375
0aaaaa

#11000
1aaaaa
1aaaab

#11625
0aaaaa

#12250
1aaaaa

#12875
0aaaaa

#13500
1aaaaa

#14125
0aaaaa

#14750
1aaaaa

#15375
0aaaaa

#16000
1aaaaa
0aaaab

#16625
0aaaaa

#17250
1aaaaa

#17875
0aaaaa

#18500
1aaaaa

#19125
0aaaaa

#19750
1aaaaa

#20375
0aaaaa

#21000
1aaaaa
1aaaab

#21625
0aaaaa

#22250
1aaaaa

#22875
0aaaaa

#23500
1aaaaa

#24125
0aaaaa

#24750
1aaaaa

#25375
0aaaaa

#26000
1aaaaa
0aaaab

#26625
0aaaaa

#27250
1aaaaa

#27875
0aaaaa

#28500
1aaaaa

#29125
0aaaaa

#29750
1aaaaa

#30375
0aaaaa

#31000
1aaaaa
1aaaab

#31625
0aaaaa

#32250
1aaaaa

#32875
0aaaaa

#33500
1aaaaa

#34125
0aaaaa

#34750
1aaaaa

#35375
0aaaaa

#36000
1aaaaa
0aaaab

#36625
0aaaaa

#37250
1aaaaa

#37875
0aaaaa

#38500
1aaaaa

#39125
0aaaaa

#39750
1aaaaa

#40375
0aaaaa

#41000
1aaaaa
1aaaab

#41625
0aaaaa

#42250
1aaaaa

#42875
0aaaaa

#43500
1aaaaa

#44125
0aaaaa

#44750
1aaaaa

#45375
0aaaaa

#46000
1aaaaa
0aaaab

#46625
0aaaaa

#47250
1aaaaa

#47875
0aaaaa

#48500
1aaaaa

#49125
0aaaaa

#49750
1aaaaa

#50375
0aaaaa

#51000
1aaaaa
1aaaab

#51625
0aaaaa

#52250
1aaaaa

#52875
0aaaaa

#53500
1aaaaa

#54125
0aaaaa

#54750
1aaaaa

#55375
0aaaaa

#56000
1aaaaa
0aaaab

#56625
0aaaaa

#57250
1aaaaa

#57875
0aaaaa

#58500
1aaaaa

#59125
0aaaaa

#59750
1aaaaa

#60375
0aaaaa

#61000
1aaaaa
1aaaab

#61625
0aaaaa

#62250
1aaaaa

#62875
0aaaaa

#63500
1aaaaa

#64125
0aaaaa

#64750
1aaaaa

#65375
0aaaaa

#66000
1aaaaa
0aaaab

#66625
0aaaaa

#67250
1aaaaa

#67875
0aaaaa

#68500
1aaaaa

#69125
0aaaaa

#69750
1aaaaa

#70375
0aaaaa

#71000
1aaaaa
1aaaab

#71625
0aaaaa

#72250
1aaaaa

#72875
0aaaaa

#73500
1aaaaa

#74125
0aaaaa

#74750
1aaaaa

#75375
0aaaaa

#76000
1aaaaa
0aaaab

#76625
0aaaaa

#77250
1aaaaa

#77875
0aaaaa

#78500
1aaaaa

#79125
0aaaaa

#79750
1aaaaa

#80375
0aaaaa

#81000
1aaaaa
1aaaab

#81625
0aaaaa

#82250
1aaaaa

#82875
0aaaaa

#83500
1aaaaa

#84125
0aaaaa

#84750
1aaaaa

#85375
0aaaaa

#86000
1aaaaa
0aaaab

#86625
0aaaaa

#87250
1aaaaa

#87875
0aaaaa

#88500
1aaaaa

#89125
0aaaaa

#89750
1aaaaa

#90375
0aaaaa

#91000
1aaaaa
1aaaab

#91625
0aaaaa

#92250
1aaaaa

#92875
0aaaaa

#93500
1aaaaa

#94125
0aaaaa

#94750
1aaaaa

#95375
0aaaaa

#96000
1aaaaa
0aaaab

#96625
0aaaaa

#97250
1aaaaa

#97875
0aaaaa

#98500
1aaaaa

#99125
0aaaaa

#99750
1aaaaa

#100375
0aaaaa

#101000
1aaaaa
1aaaab

#101625
0aaaaa

#102250
1aaaaa

#102875
0aaaaa

#103500
1aaaaa

#104125
0aaaaa

#104750
1aaaaa

#105375
0aaaaa

#106000
1aaaaa
0aaaab

#106625
0aaaaa

#107250
1aaaaa

#107875
0aaaaa

#108500
1aaaaa

#109125
0aaaaa

#109750
1aaaaa

#110375
0aaaaa

#111000
1aaaaa
1aaaab

#111625
0aaaaa

#112250
1aaaaa

#112875
0aaaaa

#113500
1aaaaa

#114125
0aaaaa

#114750
1aaaaa

#115375
0aaaaa

#116000
1aaaaa
0aaaab

#116625
0aaaaa

#117250
1aaaaa

#117875
0aaaaa

#118500
1aaaaa

#119125
0aaaaa

#119750
1aaaaa

#120375
0aaaaa

#121000
1aaaaa
1aaaab

#121625
0aaaaa

#122250
1aaaaa

#122875
0aaaaa

#123500
1aaaaa

#124125
0aaaaa

#124750
1aaaaa

#125375
0aaaaa

#126000
1aaaaa
0aaaab

#126625
0aaaaa

#127250
1aaaaa

#127875
0aaaaa

#128500
1aaaaa

#129125
0aaaaa

#129750
1aaaaa

#130375
0aaaaa

#131000
1aaaaa
1aaaab

#131625
0aaaaa

#132250
1aaaaa

#132875
0aaaaa

#133500
1aaaaa

#134125
0aaaaa

#134750
1aaaaa

#135375
0aaaaa

#136000
1aaaaa
0aaaab

#136625
0aaaaa

#137250
1aaaaa

#137875
0aaaaa

#138500
1aaaaa

#139125
0aaaaa

#139750
1aaaaa

#140375
0aaaaa

#141000
1aaaaa
1aaaab

#141625
0aaaaa

#142250
1aaaaa

#142875
0aaaaa

#143500
1aaaaa

#144125
0aaaaa

#144750
1aaaaa

#145375
0aaaaa

#146000
1aaaaa
0aaaab

#146625
0aaaaa

#147250
1aaaaa

#147875
0aaaaa

#148500
1aaaaa

#149125
0aaaaa

#149750
1aaaaa

#150375
0aaaaa

#151000
1aaaaa
1aaaab

#151625
0aaaaa

#152250
1aaaaa

#152875
0aaaaa

#153500
1aaaaa

#154125
0aaaaa

#154750
1aaaaa

#155375
0aaaaa

#156000
1aaaaa
0aaaab

#156625
0aaaaa

#157250
1aaaaa

#157875
0aaaaa

#158500
1aaaaa

#159125
0aaaaa

#159750
1aaaaa

#160375
0aaaaa

#161000
1aaaaa
1aaaab

#161625
0aaaaa

#162250
1aaaaa

#162875
0aaaaa

#163500
1aaaaa

#164125
0aaaaa

#164750
1aaaaa

#165375
0aaaaa

#166000
1aaaaa
0aaaab

#166625
0aaaaa

#167250
1aaaaa

#167875
0aaaaa

#168500
1aaaaa

#169125
0aaaaa

#169750
1aaaaa

#170375
0aaaaa

#171000
1aaaaa
1aaaab

#171625
0aaaaa

#172250
1aaaaa

#172875
0aaaaa

#173500
1aaaaa

#174125
0aaaaa

#174750
1aaaaa

#175375
0aaaaa

#176000
1aaaaa
0aaaab

#176625
0aaaaa

#177250
1aaaaa

#177875
0aaaaa

#178500
1aaaaa

#179125
0aaaaa

#179750
1aaaaa

#180375
0aaaaa

#181000
1aaaaa
1aaaab

#181625
0aaaaa

#182250
1aaaaa

#182875
0aaaaa

#183500
1aaaaa

#184125
0aaaaa

#184750
1aaaaa

#185375
0aaaaa

#186000
1aaaaa
0aaaab

#186625
0aaaaa

#187250
1aaaaa

#187875
0aaaaa

#188500
1aaaaa

#189125
0aaaaa

#189750
1aaaaa

#190375
0aaaaa

#191000
1aaaaa
1aaaab

#191625
0aaaaa

#192250
1aaaaa

#192875
0aaaaa

#193500
1aaaaa

#194125
0aaaaa

#194750
1aaaaa

#195375
0aaaaa

#196000
1aaaaa
0aaaab

#196625
0aaaaa

#197250
1aaaaa

#197875
0aaaaa

#198500
1aaaaa

#199125
0aaaaa

#199750
1aaaaa

#200375
0aaaaa

#201000
1aaaaa
1aaaab

#201625
0aaaaa

#202250
1aaaaa

#202875
0aaaaa

#203500
1aaaaa

#204125
0aaaaa

#204750
1aaaaa

#205375
0aaaaa

#206000
1aaaaa
0aaaab

#206625
0aaaaa

#207250
1aaaaa

#207875
0aaaaa

#208500
1aaaaa

#209125
0aaaaa

#209750
1aaaaa

#210375
0aaaaa

#211000
1aaaaa
1aaaab

#211625
0aaaaa

#212250
1aaaaa

#212875
0aaaaa

#213500
1aaaaa

#214125
0aaaaa

#214750
1aaaaa

#215375
0aaaaa

#216000
1aaaaa
0aaaab

#216625
0aaaaa

#217250
1aaaaa

#217875
0aaaaa

#218500
1aaaaa

#219125
0aaaaa

#219750
1aaaaa

#220375
0aaaaa

#221000
1aaaaa
1aaaab

#221625
0aaaaa

#222250
1aaaaa

#222875
0aaaaa

#223500
1aaaaa

#224125
0aaaaa

#224750
1aaaaa

#225375
0aaaaa

#226000
1aaaaa
0aaaab

#226625
0aaaaa

#227250
1aaaaa

#227875
0aaaaa

#228500
1aaaaa

#229125
0aaaaa

#229750
1aaaaa

#230375
0aaaaa

#231000
1aaaaa
1aaaab

#231625
0aaaaa

#232250
1aaaaa

#232875
0aaaaa

#233500
1aaaaa

#234125
0aaaaa

#234750
1aaaaa

#235375
0aaaaa

#236000
1aaaaa
0aaaab

#236625
0aaaaa

#237250
1aaaaa

#237875
0aaaaa

#238500
1aaaaa

#239125
0aaaaa

#239750
1aaaaa

#240375
0aaaaa

#241000
1aaaaa
1aaaab

#241625
0aaaaa

#242250
1aaaaa

#242875
0aaaaa

#243500
1aaaaa

#244125
0aaaaa

#244750
1aaaaa

#245375
0aaaaa

#246000
1aaaaa
0aaaab

#246625
0aaaaa

#247250
1aaaaa

#247875
0aaaaa

#248500
1aaaaa

#249125
0aaaaa

#249750
1aaaaa

#250375
0aaaaa

#251000
1aaaaa
1aaaab

#251625
0aaaaa

#252250
1aaaaa

#252875
0aaaaa

#253500
1aaaaa

#254125
0aaaaa

#254750
1aaaaa

#255375
0aaaaa

#256000
1aaaaa
0aaaab
b1 aaaad

#256625
0aaaaa

#257250
1aaaaa

#257875
0aaaaa

#258500
1aaaaa

#259125
0aaaaa

#259750
1aaaaa

#260375
0aaaaa

#261000
1aaaaa
1aaaab
b1 aaaae

#261625
0aaaaa

#262250
1aaaaa

#262875
0aaaaa

#263500
1aaaaa

#264125
0aaaaa

#264750
1aaaaa

#265375
0aaaaa

#266000
1aaaaa
0aaaab

#266625
0aaaaa

#267250
1aaaaa
b0 aaaad

#267875
0aaaaa

#268500
1aaaaa

#269125
0aaaaa

#269750
1aaaaa

#270375
0aaaaa

#271000
1aaaaa
1aaaab
b0 aaaae

#271625
0aaaaa

#272250
1aaaaa

#272875
0aaaaa

#273500
1aaaaa

#274125
0aaaaa

#274750
1aaaaa
b1 aaaac

#275375
0aaaaa

#276000
1aaaaa
0aaaab
b1 aaaad

#276625
0aaaaa

#277250
1aaaaa

#277875
0aaaaa

#278500
1aaaaa

#279125
0aaaaa

#279750
1aaaaa

#280375
0aaaaa

#281000
1aaaaa
1aaaab
b1 aaaae

#281625
0aaaaa

#282250
1aaaaa

#282875
0aaaaa

#283500
1aaaaa

#284125
0aaaaa

#284750
1aaaaa

#285375
0aaaaa

#286000
1aaaaa
0aaaab

#286625
0aaaaa

#287250
1aaaaa
b0 aaaad

#287875
0aaaaa

#288500
1aaaaa

#289125
0aaaaa

#289750
1aaaaa

#290375
0aaaaa

#291000
1aaaaa
1aaaab
b0 aaaae

#291625
0aaaaa

#292250
1aaaaa

#292875
0aaaaa

#293500
1aaaaa

#294125
0aaaaa

#294750
1aaaaa
b10 aaaac

#295375
0aaaaa

#296000
1aaaaa
0aaaab
b1 aaaad

#296625
0aaaaa

#297250
1aaaaa

#297875
0aaaaa

#298500
1aaaaa

#299125
0aaaaa

#299750
1aaaaa

#300375
0aaaaa

#301000
1aaaaa
1aaaab
b1 aaaae

#301625
0aaaaa

#302250
1aaaaa

#302875
0aaaaa

#303500
1aaaaa

#304125
0aaaaa

#304750
1aaaaa

#305375
0aaaaa

#306000
1aaaaa
0aaaab

#306625
0aaaaa

#307250
1aaaaa
b0 aaaad

#307875
0aaaaa

#308500
1aaaaa

#309125
0aaaaa

#309750
1aaaaa

#310375
0aaaaa

#311000
1aaaaa
1aaaab
b0 aaaae

#311625
0aaaaa

#312250
1aaaaa

#312875
0aaaaa

#313500
1aaaaa

#314125
0aaaaa

#314750
1aaaaa
b11 aaaac

#315375
0aaaaa

#316000
1aaaaa
0aaaab
b1 aaaad

#316625
0aaaaa

#317250
1aaaaa

#317875
0aaaaa

#318500
1aaaaa

#319125
0aaaaa

#319750
1aaaaa

#320375
0aaaaa

#321000
1aaaaa
1aaaab
b1 aaaae
b1 aaaaf

#321625
0aaaaa

#322250
1aaaaa

#322875
0aaaaa

#323500
1aaaaa

#324125
0aaaaa

#324750
1aaaaa

#325375
0aaaaa

#326000
1aaaaa
0aaaab

#326625
0aaaaa

#327250
1aaaaa
b0 aaaad

#327875
0aaaaa

#328500
1aaaaa

#329125
0aaaaa

#329750
1aaaaa

#330375
0aaaaa

#331000
1aaaaa
1aaaab
b0 aaaae

#331625
0aaaaa

#332250
1aaaaa

#332875
0aaaaa

#333500
1aaaaa

#334125
0aaaaa

#334750
1aaaaa
b100 aaaac

#335375
0aaaaa

#336000
1aaaaa
0aaaab
b1 aaaad

#336625
0aaaaa

#337250
1aaaaa

#337875
0aaaaa

#338500
1aaaaa

#339125
0aaaaa

#339750
1aaaaa

#340375
0aaaaa

#341000
1aaaaa
1aaaab
b1 aaaae
b100 aaaaf

#341625
0aaaaa

#342250
1aaaaa

#342875
0aaaaa

#343500
1aaaaa

#344125
0aaaaa

#344750
1aaaaa

#345375
0aaaaa

#346000
1aaaaa
0aaaab

#346625
0aaaaa

#347250
1aaaaa
b0 aaaad

#347875
0aaaaa

#348500
1aaaaa

#349125
0aaaaa

#349750
1aaaaa

#350375
0aaaaa

#351000
1aaaaa
1aaaab
b0 aaaae

#351625
0aaaaa

#352250
1aaaaa

#352875
0aaaaa

#353500
1aaaaa

#354125
0aaaaa

#354750
1aaaaa
b101 aaaac

#355375
0aaaaa

#356000
1aaaaa
0aaaab
b1 aaaad

#356625
0aaaaa

#357250
1aaaaa

#357875
0aaaaa

#358500
1aaaaa

#359125
0aaaaa

#359750
1aaaaa

#360375
0aaaaa

#361000
1aaaaa
1aaaab
b1 aaaae
b1010 aaaaf

#361625
0aaaaa

#362250
1aaaaa

#362875
0aaaaa

#363500
1aaaaa

#364125
0aaaaa

#364750
1aaaaa

#365375
0aaaaa

#366000
1aaaaa
0aaaab

#366625
0aaaaa

#367250
1aaaaa
b0 aaaad

#367875
0aaaaa

#368500
1aaaaa

#369125
0aaaaa

#369750
1aaaaa

#370375
0aaaaa

#371000
1aaaaa
1aaaab
b0 aaaae

#371625
0aaaaa

#372250
1aaaaa

#372875
0aaaaa

#373500
1aaaaa

#374125
0aaaaa

#374750
1aaaaa
b110 aaaac

#375375
0aaaaa

#376000
1aaaaa
0aaaab
b1 aaaad

#376625
0aaaaa

#377250
1aaaaa

#377875
0aaaaa

#378500
1aaaaa

#379125
0aaaaa

#379750
1aaaaa

#380375
0aaaaa

#381000
1aaaaa
1aaaab
b1 aaaae
b10100 aaaaf

#381625
0aaaaa

#382250
1aaaaa

#382875
0aaaaa

#383500
1aaaaa

#384125
0aaaaa

#384750
1aaaaa

#385375
0aaaaa

#386000
1aaaaa
0aaaab

#386625
0aaaaa

#387250
1aaaaa
b0 aaaad

#387875
0aaaaa

#388500
1aaaaa

#389125
0aaaaa

#389750
1aaaaa

#390375
0aaaaa

#391000
1aaaaa
1aaaab
b0 aaaae

#391625
0aaaaa

#392250
1aaaaa

#392875
0aaaaa

#393500
1aaaaa

#394125
0aaaaa

#394750
1aaaaa
b111 aaaac

#395375
0aaaaa

#396000
1aaaaa
0aaaab
b1 aaaad

#396625
0aaaaa

#397250
1aaaaa

#397875
0aaaaa

#398500
1aaaaa

#399125
0aaaaa

#399750
1aaaaa

#400375
0aaaaa

#401000
1aaaaa
1aaaab
b1 aaaae
b100011 aaaaf

#401625
0aaaaa

#402250
1aaaaa

#402875
0aaaaa

#403500
1aaaaa

#404125
0aaaaa

#404750
1aaaaa

#405375
0aaaaa

#406000
1aaaaa
0aaaab

#406625
0aaaaa

#407250
1aaaaa
b0 aaaad

#407875
0aaaaa

#408500
1aaaaa

#409125
0aaaaa

#409750
1aaaaa

#410375
0aaaaa

#411000
1aaaaa
1aaaab
b0 aaaae

#411625
0aaaaa

#412250
1aaaaa

#412875
0aaaaa

#413500
1aaaaa

#414125
0aaaaa

#414750
1aaaaa
b1000 aaaac

#415375
0aaaaa

#416000
1aaaaa
0aaaab
b1 aaaad

#416625
0aaaaa

#417250
1aaaaa

#417875
0aaaaa

#418500
1aaaaa

#419125
0aaaaa

#419750
1aaaaa

#420375
0aaaaa

#421000
1aaaaa
1aaaab
b1 aaaae
b111000 aaaaf

#421625
0aaaaa

#422250
1aaaaa

#422875
0aaaaa

#423500
1aaaaa

#424125
0aaaaa

#424750
1aaaaa

#425375
0aaaaa

#426000
1aaaaa
0aaaab

#426625
0aaaaa

#427250
1aaaaa
b0 aaaad

#427875
0aaaaa

#428500
1aaaaa

#429125
0aaaaa

#429750
1aaaaa

#430375
0aaaaa

#431000
1aaaaa
1aaaab
b0 aaaae

#431625
0aaaaa

#432250
1aaaaa

#432875
0aaaaa

#433500
1aaaaa

#434125
0aaaaa

#434750
1aaaaa
b1001 aaaac

#435375
0aaaaa

#436000
1aaaaa
0aaaab
b1 aaaad

#436625
0aaaaa

#437250
1aaaaa

#437875
0aaaaa

#438500
1aaaaa

#439125
0aaaaa

#439750
1aaaaa

#440375
0aaaaa

#441000
1aaaaa
1aaaab
b1 aaaae
b1010100 aaaaf

#441625
0aaaaa

#442250
1aaaaa

#442875
0aaaaa

#443500
1aaaaa

#444125
0aaaaa

#444750
1aaaaa

#445375
0aaaaa

#446000
1aaaaa
0aaaab

#446625
0aaaaa

#447250
1aaaaa
b0 aaaad

#447875
0aaaaa

#448500
1aaaaa

#449125
0aaaaa

#449750
1aaaaa

#450375
0aaaaa

#451000
1aaaaa
1aaaab
b0 aaaae

#451625
0aaaaa

#452250
1aaaaa

#452875
0aaaaa

#453500
1aaaaa

#454125
0aaaaa

#454750
1aaaaa
b1010 aaaac

#455375
0aaaaa

#456000
1aaaaa
0aaaab
b1 aaaad

#456625
0aaaaa

#457250
1aaaaa

#457875
0aaaaa

#458500
1aaaaa

#459125
0aaaaa

#459750
1aaaaa

#460375
0aaaaa

#461000
1aaaaa
1aaaab
b1 aaaae
b1110000 aaaaf

#461625
0aaaaa

#462250
1aaaaa

#462875
0aaaaa

#463500
1aaaaa

#464125
0aaaaa

#464750
1aaaaa

#465375
0aaaaa

#466000
1aaaaa
0aaaab

#466625
0aaaaa

#467250
1aaaaa
b0 aaaad

#467875
0aaaaa

#468500
1aaaaa

#469125
0aaaaa

#469750
1aaaaa

#470375
0aaaaa

#471000
1aaaaa
1aaaab
b0 aaaae

